<?xml version="1.0" encoding="UTF-8" standalone="no"?>
<!-- Created with Inkscape (http://www.inkscape.org/) -->

<svg
   width="1000"
   height="1000"
   viewBox="0 0 264.58333 264.58334"
   version="1.1"
   id="svg5"
   inkscape:version="1.1.2 (0a00cf5, 2022-02-04)"
   sodipodi:docname="Facebook_Simple.svg"
   xmlns:inkscape="http://www.inkscape.org/namespaces/inkscape"
   xmlns:sodipodi="http://sodipodi.sourceforge.net/DTD/sodipodi-0.dtd"
   xmlns="http://www.w3.org/2000/svg"
   xmlns:svg="http://www.w3.org/2000/svg">
  <sodipodi:namedview
     id="namedview7"
     pagecolor="#505050"
     bordercolor="#ffffff"
     borderopacity="1"
     inkscape:pageshadow="0"
     inkscape:pageopacity="0"
     inkscape:pagecheckerboard="1"
     inkscape:document-units="mm"
     showgrid="false"
     units="px"
     width="1000px"
     inkscape:zoom="0.48996914"
     inkscape:cx="374.51339"
     inkscape:cy="535.74803"
     inkscape:window-width="1330"
     inkscape:window-height="743"
     inkscape:window-x="36"
     inkscape:window-y="0"
     inkscape:window-maximized="1"
     inkscape:current-layer="g1786">
    <sodipodi:guide
       position="0,264.58333"
       orientation="0,1000"
       id="guide1760" />
    <sodipodi:guide
       position="264.58333,0"
       orientation="0,-1000"
       id="guide1764" />
    <sodipodi:guide
       position="0,0"
       orientation="-1000,0"
       id="guide1766" />
  </sodipodi:namedview>
  <defs
     id="defs2">
    <clipPath
       clipPathUnits="userSpaceOnUse"
       id="clipPath2173">
      <circle
         style="opacity:0.4;fill:#191a31;stroke:#ffffff;stroke-width:0.499999"
         id="circle2175"
         cx="132.29167"
         cy="132.29167"
         r="132.29167" />
    </clipPath>
  </defs>
  <g
     inkscape:label="Capa 1"
     inkscape:groupmode="layer"
     id="layer1">
    <g
       id="g1786">
      <path
         style="fill:#f9fbfe;stroke-width:0.814103"
         d="m 110.82355,262.36108 c 0.95724,-32.17391 0.46345,-56.25569 0.30145,-90.99248 L 94.842951,170.96155 78.560899,170.5545 v -19.13141 -19.13142 l 16.282052,-0.40705 16.282049,-0.40705 0.47397,-20.75961 c 0.44746,-19.598204 0.595,-21.127553 2.63713,-27.336274 5.16552,-15.704793 16.07282,-25.906853 32.30237,-30.213761 3.84374,-1.020032 8.41026,-1.396584 16.6891,-1.376172 11.39608,0.02809 26.30885,1.465212 27.49405,2.649549 0.34576,0.345514 0.52893,7.745503 0.40705,16.444418 l -0.22161,15.81621 -12.21154,0.431621 c -13.09698,0.462915 -16.48488,1.423019 -20.46087,5.798446 -4.42513,4.869701 -4.7666,6.521206 -4.77162,23.077623 l -0.005,15.46795 17.73841,0.21949 c 13.13097,0.16248 17.83402,0.47967 18.10653,1.22116 0.45157,1.22872 -4.95912,36.32853 -5.71756,37.09045 -0.29884,0.3002 -7.19975,0.729 -15.33536,0.95288 l -14.79202,0.40705 -0.21049,45.13502 c -0.11895,25.50652 0.10369,45.4492 0.51195,45.85746 z"
         id="path1790"
         clip-path="url(#clipPath2173)"
         sodipodi:nodetypes="ccccccccsssssscssccsssscscc" />
    </g>
  </g>
</svg>
